body{
  background: linear-gradient(150deg,#E9D5CA,#243A73);
  height: 100vh;
  margin: 0;
}
.reg-1{
  height:640px;
  width:550px;
  background-color: white;
  position: absolute;
  right:32%;
  top:5%;
  border: 5px solid #251D3A;
}
/*img{
  height: 100px;
  width: 100px;
  position: relative;
  bottom: 60px;
  left:150px;
}*/
.heading{
 text-align: center;
 width: 555px;
 height:60px;
 background-color: #251D3A;
 color: white;
 position: relative;
 bottom: 4%;
 }
 h1{
   position: relative;
   top:12%;
 }
 .form{
   color:#251D3A;
 }
 #fname{
   width: 500px;
   height:28px;;
   position: relative;
   left:2%;
   top:4px;
 }
 #lname{
   width: 500px;
   height:28px;;
   position: relative;
   left:2%;
   top:27px;
 }
 #gender{
   width: 510px;
   height:34px;;
   position: relative;
   left:2%;
   top:47px;
 }
 #email{
   width: 502px;
   height:30px;;
   position: relative;
   left:2%;
   top:67px;
 }#password{
   width: 502px;
   height:30px;;
   position: relative;
   left:2%;
   top:87px;
 }#Phno{
   width: 502px;
   height:30px;;
   position: relative;
   left:2%;
   top:107px;
 }
 button{
   position: absolute;
   bottom: 13% ;
   right: 83%;
   height: 30px;
   width:80px;
   border-radius: 5px;
   background-color: #251D3A;
   color: #FFFFFF;
   font-size: 15px;
   font-weight:normal;
 }
 button:hover{
   background-color:white;
   color:black;
   font-weight:bold; 
 }
 button:active {
   transform: translateY(2px);
 }
